{
    "camera": {
		"Eye": [278.0, 273.0, -800.0],
		"At": [278.0, 273.0, 0.0],
		"Up": [0.0, 1.0, 0.0],
		"FOV": 40.0,
		"aspect": 1.0,
		"rows": 1024,
		"columns": 1024
    },
    "scene": {
        "triangles":[
            {
                "name": "lighta",
                "color": 1,
                "vertices": [343.0, 547.8, 227.0, 343.0, 547.8, 332.0, 213.0, 547.8, 332.0]
            },
            {
                "name": "lightb",
                "color": 1,
                "vertices": [343.0, 547.8, 227.0, 213.0, 547.8, 332.0, 213.0, 547.8, 227.0]
            },
            {
                "name": "floora",
                "color": 1,
                "vertices": [1200.0, 0.0, 0.0, 0.0, 0.0, 0.0, 0.0, 0.0, 1200.0]
            },
            {
                "name": "ceiling",
                "color": 1,
                "vertices": [1200.0, 548.8, 0.0, 0.0, 548.8, 1200.0, 0.0, 548.8, 0.0]
            },
            {
                "name": "back wall",
                "color": 1,
                "vertices": [1200.0, 0.0, 559.2, 0.0, 0.0, 559.2, 0.0, 1200.0, 559.2]
            },
            {
                "name": "right wall",
                "color": 2,
                "vertices": [  0.0, 0.0, 1200.0, 0.0, 0.0, 0.0, 0.0, 1200.0, 0.0]
            },
            {
                "name": "left wall",
                "color": 3,
                "vertices": [552.8, 0.0, 0.0, 549.6, 0.0, 1200.0, 556.0, 1200.0, 0.0]
            },
            {
                "name": "short block 1a",
                "color": 1,
                "vertices": [130.0, 165.0, 65.0, 82.0, 165.0, 225.0, 240.0, 165.0, 272.0]
            },
            {
                "name": "short block 1b",
                "color": 1,
                "vertices": [130.0, 165.0, 65.0, 240.0, 165.0, 272.0, 290.0, 165.0, 114.0]
            },
            {
                "name": "short block 2a",
                "color": 1,
                "vertices": [290.0, 0.0, 114.0, 290.0, 165.0, 114.0, 240.0, 165.0, 272.0]
            },
            {
                "name": "short block 2b",
                "color": 1,
                "vertices": [290.0, 0.0, 114.0, 240.0, 165.0, 272.0, 240.0, 0.0, 272.0]
            },
            {
                "name": "short block 3a",
                "color": 1,
                "vertices": [130.0, 0.0, 65.0, 130.0, 165.0, 65.0, 290.0, 165.0, 114.0]
            },
            {
                "name": "short block 3b",
                "color": 1,
                "vertices": [130.0, 0.0, 65.0, 290.0, 165.0, 114.0, 290.0, 0.0, 114.0]
            },
            {
                "name": "short block 4a",
                "color": 1,
                "vertices": [ 82.0, 0.0, 225.0, 82.0, 165.0, 225.0, 130.0, 165.0, 65.0]
            },
            {
                "name": "short block 4b",
                "color": 1,
                "vertices": [ 82.0, 0.0, 225.0, 130.0, 165.0, 65.0, 130.0, 0.0, 65.0]
            },
            {
                "name": "short block 5a",
                "color": 1,
                "vertices": [240.0, 0.0, 272.0, 240.0, 165.0, 272.0, 82.0, 165.0, 225.0]
            },
            {
                "name": "short block 5b",
                "color": 1,
                "vertices": [240.0, 0.0, 272.0, 82.0, 165.0, 225.0, 82.0, 0.0, 225.0]
            },
            {
                "name": "tall block 1b",
                "color": 1,
                "vertices": [423.0, 330.0, 247.0, 314.0, 330.0, 456.0, 472.0, 330.0, 406.0]
            },
            {
                "name": "tall block 2a",
                "color": 1,
                "vertices": [423.0, 0.0, 247.0, 423.0, 330.0, 247.0, 472.0, 330.0, 406.0]
            },
            {
                "name": "tall block 2b",
                "color": 1,
                "vertices": [423.0, 0.0, 247.0, 472.0, 330.0, 406.0, 472.0, 0.0, 406.0]
            },
            {
                "name": "tall block 3a",
                "color": 1,
                "vertices": [472.0, 0.0, 406.0, 472.0, 330.0, 406.0, 314.0, 330.0, 456.0]
            },
            {
                "name": "tall block 3b",
                "color": 1,
                "vertices": [472.0, 0.0, 406.0, 314.0, 330.0, 456.0, 314.0, 0.0, 456.0]
            },
            {
                "name": "tall block 4a",
                "color": 1,
                "vertices": [314.0, 0.0, 456.0, 314.0, 330.0, 456.0, 265.0, 330.0, 296.0]
            },
            {
                "name": "tall block 4b",
                "color": 1,
                "vertices": [314.0, 0.0, 456.0, 265.0, 330.0, 296.0, 265.0, 0.0, 296.0]
            },
            {
                "name": "tall block 5a",
                "color": 1,
                "vertices": [265.0, 0.0, 296.0, 265.0, 330.0, 296.0, 423.0, 330.0, 247.0]
            },
            {
                "name": "tall block 5b",
                "color": 1,
                "vertices": [265.0, 0.0, 296.0, 423.0, 330.0, 247.0, 423.0, 0.0, 247.0]
            }
        ]
    }
}
